…
## 5. 모델 평가

### 5-1. 예측

```
predict_value <- predict(model_pr, test, type = "class") %>% tibble(predict_value = .)
predict_check <- test %>% select(diagnosis) %>% dplyr::bind_cols(., predict_value)
predict_check
```

```

# A tibble: 39 × 2
   diagnosis predict_value
   <fct>     <fct>        
 1 M         M            
 2 B         B            
 3 B         B            
 4 M         M            
 5 B         B            
 6 B         B            
 7 B         B            
 8 M         M            
 9 M         M            
10 B         B            
# ℹ 29 more rows
```
…
